output.vcd
$date
	Mon Sep 01 14:23:47 2025
$end
$version
	ModelSim Version 10.5b
$end
$timescale
	1ps
$end

$scope module calculator_tb $end
$var wire 1 ! clk $end
$var wire 1 " reset $end
$var wire 1 # led_out $end

$scope fork avalon_mm_if $end
$var wire 1 $ reset $end
$var wire 1 % address [3] $end
$var wire 1 & address [2] $end
$var wire 1 ' address [1] $end
$var wire 1 ( address [0] $end
$var wire 1 ) begintransfer $end
$var wire 1 * byte_enable [3] $end
$var wire 1 + byte_enable [2] $end
$var wire 1 , byte_enable [1] $end
$var wire 1 - byte_enable [0] $end
$var wire 1 . chipselect $end
$var wire 1 / write $end
$var wire 1 0 writedata [31] $end
$var wire 1 1 writedata [30] $end
$var wire 1 2 writedata [29] $end
$var wire 1 3 writedata [28] $end
$var wire 1 4 writedata [27] $end
$var wire 1 5 writedata [26] $end
$var wire 1 6 writedata [25] $end
$var wire 1 7 writedata [24] $end
$var wire 1 8 writedata [23] $end
$var wire 1 9 writedata [22] $end
$var wire 1 : writedata [21] $end
$var wire 1 ; writedata [20] $end
$var wire 1 < writedata [19] $end
$var wire 1 = writedata [18] $end
$var wire 1 > writedata [17] $end
$var wire 1 ? writedata [16] $end
$var wire 1 @ writedata [15] $end
$var wire 1 A writedata [14] $end
$var wire 1 B writedata [13] $end
$var wire 1 C writedata [12] $end
$var wire 1 D writedata [11] $end
$var wire 1 E writedata [10] $end
$var wire 1 F writedata [9] $end
$var wire 1 G writedata [8] $end
$var wire 1 H writedata [7] $end
$var wire 1 I writedata [6] $end
$var wire 1 J writedata [5] $end
$var wire 1 K writedata [4] $end
$var wire 1 L writedata [3] $end
$var wire 1 M writedata [2] $end
$var wire 1 N writedata [1] $end
$var wire 1 O writedata [0] $end
$var wire 1 P read $end
$var wire 1 Q lock $end
$var wire 1 R readdata [31] $end
$var wire 1 S readdata [30] $end
$var wire 1 T readdata [29] $end
$var wire 1 U readdata [28] $end
$var wire 1 V readdata [27] $end
$var wire 1 W readdata [26] $end
$var wire 1 X readdata [25] $end
$var wire 1 Y readdata [24] $end
$var wire 1 Z readdata [23] $end
$var wire 1 [ readdata [22] $end
$var wire 1 \ readdata [21] $end
$var wire 1 ] readdata [20] $end
$var wire 1 ^ readdata [19] $end
$var wire 1 _ readdata [18] $end
$var wire 1 ` readdata [17] $end
$var wire 1 a readdata [16] $end
$var wire 1 b readdata [15] $end
$var wire 1 c readdata [14] $end
$var wire 1 d readdata [13] $end
$var wire 1 e readdata [12] $end
$var wire 1 f readdata [11] $end
$var wire 1 g readdata [10] $end
$var wire 1 h readdata [9] $end
$var wire 1 i readdata [8] $end
$var wire 1 j readdata [7] $end
$var wire 1 k readdata [6] $end
$var wire 1 l readdata [5] $end
$var wire 1 m readdata [4] $end
$var wire 1 n readdata [3] $end
$var wire 1 o readdata [2] $end
$var wire 1 p readdata [1] $end
$var wire 1 q readdata [0] $end
$var wire 1 r response [1] $end
$var wire 1 s response [0] $end
$var wire 1 t waitrequest $end
$var wire 1 u readdatavalid $end
$var wire 1 v irq $end
$upscope $end

$scope module calculator_inst $end
$var wire 1 ! clk $end
$var wire 1 " reset $end
$var wire 1 % avs_address [3] $end
$var wire 1 & avs_address [2] $end
$var wire 1 ' avs_address [1] $end
$var wire 1 ( avs_address [0] $end
$var wire 1 P avs_read $end
$var wire 1 / avs_write $end
$var wire 1 0 avs_writedata [31] $end
$var wire 1 1 avs_writedata [30] $end
$var wire 1 2 avs_writedata [29] $end
$var wire 1 3 avs_writedata [28] $end
$var wire 1 4 avs_writedata [27] $end
$var wire 1 5 avs_writedata [26] $end
$var wire 1 6 avs_writedata [25] $end
$var wire 1 7 avs_writedata [24] $end
$var wire 1 8 avs_writedata [23] $end
$var wire 1 9 avs_writedata [22] $end
$var wire 1 : avs_writedata [21] $end
$var wire 1 ; avs_writedata [20] $end
$var wire 1 < avs_writedata [19] $end
$var wire 1 = avs_writedata [18] $end
$var wire 1 > avs_writedata [17] $end
$var wire 1 ? avs_writedata [16] $end
$var wire 1 @ avs_writedata [15] $end
$var wire 1 A avs_writedata [14] $end
$var wire 1 B avs_writedata [13] $end
$var wire 1 C avs_writedata [12] $end
$var wire 1 D avs_writedata [11] $end
$var wire 1 E avs_writedata [10] $end
$var wire 1 F avs_writedata [9] $end
$var wire 1 G avs_writedata [8] $end
$var wire 1 H avs_writedata [7] $end
$var wire 1 I avs_writedata [6] $end
$var wire 1 J avs_writedata [5] $end
$var wire 1 K avs_writedata [4] $end
$var wire 1 L avs_writedata [3] $end
$var wire 1 M avs_writedata [2] $end
$var wire 1 N avs_writedata [1] $end
$var wire 1 O avs_writedata [0] $end
$var wire 1 R avs_readdata [31] $end
$var wire 1 S avs_readdata [30] $end
$var wire 1 T avs_readdata [29] $end
$var wire 1 U avs_readdata [28] $end
$var wire 1 V avs_readdata [27] $end
$var wire 1 W avs_readdata [26] $end
$var wire 1 X avs_readdata [25] $end
$var wire 1 Y avs_readdata [24] $end
$var wire 1 Z avs_readdata [23] $end
$var wire 1 [ avs_readdata [22] $end
$var wire 1 \ avs_readdata [21] $end
$var wire 1 ] avs_readdata [20] $end
$var wire 1 ^ avs_readdata [19] $end
$var wire 1 _ avs_readdata [18] $end
$var wire 1 ` avs_readdata [17] $end
$var wire 1 a avs_readdata [16] $end
$var wire 1 b avs_readdata [15] $end
$var wire 1 c avs_readdata [14] $end
$var wire 1 d avs_readdata [13] $end
$var wire 1 e avs_readdata [12] $end
$var wire 1 f avs_readdata [11] $end
$var wire 1 g avs_readdata [10] $end
$var wire 1 h avs_readdata [9] $end
$var wire 1 i avs_readdata [8] $end
$var wire 1 j avs_readdata [7] $end
$var wire 1 k avs_readdata [6] $end
$var wire 1 l avs_readdata [5] $end
$var wire 1 m avs_readdata [4] $end
$var wire 1 n avs_readdata [3] $end
$var wire 1 o avs_readdata [2] $end
$var wire 1 p avs_readdata [1] $end
$var wire 1 q avs_readdata [0] $end
$var wire 1 u avs_readdata_valid $end
$var wire 1 t avs_waitrequest $end
$var wire 1 r avs_response [1] $end
$var wire 1 s avs_response [0] $end
$var wire 1 # led_out $end
$var wire 1 w s_data_in1_sync [15] $end
$var wire 1 x s_data_in1_sync [14] $end
$var wire 1 y s_data_in1_sync [13] $end
$var wire 1 z s_data_in1_sync [12] $end
$var wire 1 { s_data_in1_sync [11] $end
$var wire 1 | s_data_in1_sync [10] $end
$var wire 1 } s_data_in1_sync [9] $end
$var wire 1 ~ s_data_in1_sync [8] $end
$var wire 1 !! s_data_in1_sync [7] $end
$var wire 1 "! s_data_in1_sync [6] $end
$var wire 1 #! s_data_in1_sync [5] $end
$var wire 1 $! s_data_in1_sync [4] $end
$var wire 1 %! s_data_in1_sync [3] $end
$var wire 1 &! s_data_in1_sync [2] $end
$var wire 1 '! s_data_in1_sync [1] $end
$var wire 1 (! s_data_in1_sync [0] $end
$var wire 1 )! s_data_in2_sync [15] $end
$var wire 1 *! s_data_in2_sync [14] $end
$var wire 1 +! s_data_in2_sync [13] $end
$var wire 1 ,! s_data_in2_sync [12] $end
$var wire 1 -! s_data_in2_sync [11] $end
$var wire 1 .! s_data_in2_sync [10] $end
$var wire 1 /! s_data_in2_sync [9] $end
$var wire 1 0! s_data_in2_sync [8] $end
$var wire 1 1! s_data_in2_sync [7] $end
$var wire 1 2! s_data_in2_sync [6] $end
$var wire 1 3! s_data_in2_sync [5] $end
$var wire 1 4! s_data_in2_sync [4] $end
$var wire 1 5! s_data_in2_sync [3] $end
$var wire 1 6! s_data_in2_sync [2] $end
$var wire 1 7! s_data_in2_sync [1] $end
$var wire 1 8! s_data_in2_sync [0] $end
$var wire 1 9! s_data_in3_sync [15] $end
$var wire 1 :! s_data_in3_sync [14] $end
$var wire 1 ;! s_data_in3_sync [13] $end
$var wire 1 <! s_data_in3_sync [12] $end
$var wire 1 =! s_data_in3_sync [11] $end
$var wire 1 >! s_data_in3_sync [10] $end
$var wire 1 ?! s_data_in3_sync [9] $end
$var wire 1 @! s_data_in3_sync [8] $end
$var wire 1 A! s_data_in3_sync [7] $end
$var wire 1 B! s_data_in3_sync [6] $end
$var wire 1 C! s_data_in3_sync [5] $end
$var wire 1 D! s_data_in3_sync [4] $end
$var wire 1 E! s_data_in3_sync [3] $end
$var wire 1 F! s_data_in3_sync [2] $end
$var wire 1 G! s_data_in3_sync [1] $end
$var wire 1 H! s_data_in3_sync [0] $end
$var wire 1 I! s_data_in4_sync [15] $end
$var wire 1 J! s_data_in4_sync [14] $end
$var wire 1 K! s_data_in4_sync [13] $end
$var wire 1 L! s_data_in4_sync [12] $end
$var wire 1 M! s_data_in4_sync [11] $end
$var wire 1 N! s_data_in4_sync [10] $end
$var wire 1 O! s_data_in4_sync [9] $end
$var wire 1 P! s_data_in4_sync [8] $end
$var wire 1 Q! s_data_in4_sync [7] $end
$var wire 1 R! s_data_in4_sync [6] $end
$var wire 1 S! s_data_in4_sync [5] $end
$var wire 1 T! s_data_in4_sync [4] $end
$var wire 1 U! s_data_in4_sync [3] $end
$var wire 1 V! s_data_in4_sync [2] $end
$var wire 1 W! s_data_in4_sync [1] $end
$var wire 1 X! s_data_in4_sync [0] $end
$var wire 1 Y! s_data_in5_sync [31] $end
$var wire 1 Z! s_data_in5_sync [30] $end
$var wire 1 [! s_data_in5_sync [29] $end
$var wire 1 \! s_data_in5_sync [28] $end
$var wire 1 ]! s_data_in5_sync [27] $end
$var wire 1 ^! s_data_in5_sync [26] $end
$var wire 1 _! s_data_in5_sync [25] $end
$var wire 1 `! s_data_in5_sync [24] $end
$var wire 1 a! s_data_in5_sync [23] $end
$var wire 1 b! s_data_in5_sync [22] $end
$var wire 1 c! s_data_in5_sync [21] $end
$var wire 1 d! s_data_in5_sync [20] $end
$var wire 1 e! s_data_in5_sync [19] $end
$var wire 1 f! s_data_in5_sync [18] $end
$var wire 1 g! s_data_in5_sync [17] $end
$var wire 1 h! s_data_in5_sync [16] $end
$var wire 1 i! s_data_in5_sync [15] $end
$var wire 1 j! s_data_in5_sync [14] $end
$var wire 1 k! s_data_in5_sync [13] $end
$var wire 1 l! s_data_in5_sync [12] $end
$var wire 1 m! s_data_in5_sync [11] $end
$var wire 1 n! s_data_in5_sync [10] $end
$var wire 1 o! s_data_in5_sync [9] $end
$var wire 1 p! s_data_in5_sync [8] $end
$var wire 1 q! s_data_in5_sync [7] $end
$var wire 1 r! s_data_in5_sync [6] $end
$var wire 1 s! s_data_in5_sync [5] $end
$var wire 1 t! s_data_in5_sync [4] $end
$var wire 1 u! s_data_in5_sync [3] $end
$var wire 1 v! s_data_in5_sync [2] $end
$var wire 1 w! s_data_in5_sync [1] $end
$var wire 1 x! s_data_in5_sync [0] $end
$var wire 1 y! data_in1 [15] $end
$var wire 1 z! data_in1 [14] $end
$var wire 1 {! data_in1 [13] $end
$var wire 1 |! data_in1 [12] $end
$var wire 1 }! data_in1 [11] $end
$var wire 1 ~! data_in1 [10] $end
$var wire 1 !" data_in1 [9] $end
$var wire 1 "" data_in1 [8] $end
$var wire 1 #" data_in1 [7] $end
$var wire 1 $" data_in1 [6] $end
$var wire 1 %" data_in1 [5] $end
$var wire 1 &" data_in1 [4] $end
$var wire 1 '" data_in1 [3] $end
$var wire 1 (" data_in1 [2] $end
$var wire 1 )" data_in1 [1] $end
$var wire 1 *" data_in1 [0] $end
$var wire 1 +" data_in2 [15] $end
$var wire 1 ," data_in2 [14] $end
$var wire 1 -" data_in2 [13] $end
$var wire 1 ." data_in2 [12] $end
$var wire 1 /" data_in2 [11] $end
$var wire 1 0" data_in2 [10] $end
$var wire 1 1" data_in2 [9] $end
$var wire 1 2" data_in2 [8] $end
$var wire 1 3" data_in2 [7] $end
$var wire 1 4" data_in2 [6] $end
$var wire 1 5" data_in2 [5] $end
$var wire 1 6" data_in2 [4] $end
$var wire 1 7" data_in2 [3] $end
$var wire 1 8" data_in2 [2] $end
$var wire 1 9" data_in2 [1] $end
$var wire 1 :" data_in2 [0] $end
$var wire 1 ;" data_in3 [15] $end
$var wire 1 <" data_in3 [14] $end
$var wire 1 =" data_in3 [13] $end
$var wire 1 >" data_in3 [12] $end
$var wire 1 ?" data_in3 [11] $end
$var wire 1 @" data_in3 [10] $end
$var wire 1 A" data_in3 [9] $end
$var wire 1 B" data_in3 [8] $end
$var wire 1 C" data_in3 [7] $end
$var wire 1 D" data_in3 [6] $end
$var wire 1 E" data_in3 [5] $end
$var wire 1 F" data_in3 [4] $end
$var wire 1 G" data_in3 [3] $end
$var wire 1 H" data_in3 [2] $end
$var wire 1 I" data_in3 [1] $end
$var wire 1 J" data_in3 [0] $end
$var wire 1 K" data_in4 [15] $end
$var wire 1 L" data_in4 [14] $end
$var wire 1 M" data_in4 [13] $end
$var wire 1 N" data_in4 [12] $end
$var wire 1 O" data_in4 [11] $end
$var wire 1 P" data_in4 [10] $end
$var wire 1 Q" data_in4 [9] $end
$var wire 1 R" data_in4 [8] $end
$var wire 1 S" data_in4 [7] $end
$var wire 1 T" data_in4 [6] $end
$var wire 1 U" data_in4 [5] $end
$var wire 1 V" data_in4 [4] $end
$var wire 1 W" data_in4 [3] $end
$var wire 1 X" data_in4 [2] $end
$var wire 1 Y" data_in4 [1] $end
$var wire 1 Z" data_in4 [0] $end
$var wire 1 [" data_in5 [31] $end
$var wire 1 \" data_in5 [30] $end
$var wire 1 ]" data_in5 [29] $end
$var wire 1 ^" data_in5 [28] $end
$var wire 1 _" data_in5 [27] $end
$var wire 1 `" data_in5 [26] $end
$var wire 1 a" data_in5 [25] $end
$var wire 1 b" data_in5 [24] $end
$var wire 1 c" data_in5 [23] $end
$var wire 1 d" data_in5 [22] $end
$var wire 1 e" data_in5 [21] $end
$var wire 1 f" data_in5 [20] $end
$var wire 1 g" data_in5 [19] $end
$var wire 1 h" data_in5 [18] $end
$var wire 1 i" data_in5 [17] $end
$var wire 1 j" data_in5 [16] $end
$var wire 1 k" data_in5 [15] $end
$var wire 1 l" data_in5 [14] $end
$var wire 1 m" data_in5 [13] $end
$var wire 1 n" data_in5 [12] $end
$var wire 1 o" data_in5 [11] $end
$var wire 1 p" data_in5 [10] $end
$var wire 1 q" data_in5 [9] $end
$var wire 1 r" data_in5 [8] $end
$var wire 1 s" data_in5 [7] $end
$var wire 1 t" data_in5 [6] $end
$var wire 1 u" data_in5 [5] $end
$var wire 1 v" data_in5 [4] $end
$var wire 1 w" data_in5 [3] $end
$var wire 1 x" data_in5 [2] $end
$var wire 1 y" data_in5 [1] $end
$var wire 1 z" data_in5 [0] $end
$var wire 1 {" s_mult1 [31] $end
$var wire 1 |" s_mult1 [30] $end
$var wire 1 }" s_mult1 [29] $end
$var wire 1 ~" s_mult1 [28] $end
$var wire 1 !# s_mult1 [27] $end
$var wire 1 "# s_mult1 [26] $end
$var wire 1 ## s_mult1 [25] $end
$var wire 1 $# s_mult1 [24] $end
$var wire 1 %# s_mult1 [23] $end
$var wire 1 &# s_mult1 [22] $end
$var wire 1 '# s_mult1 [21] $end
$var wire 1 (# s_mult1 [20] $end
$var wire 1 )# s_mult1 [19] $end
$var wire 1 *# s_mult1 [18] $end
$var wire 1 +# s_mult1 [17] $end
$var wire 1 ,# s_mult1 [16] $end
$var wire 1 -# s_mult1 [15] $end
$var wire 1 .# s_mult1 [14] $end
$var wire 1 /# s_mult1 [13] $end
$var wire 1 0# s_mult1 [12] $end
$var wire 1 1# s_mult1 [11] $end
$var wire 1 2# s_mult1 [10] $end
$var wire 1 3# s_mult1 [9] $end
$var wire 1 4# s_mult1 [8] $end
$var wire 1 5# s_mult1 [7] $end
$var wire 1 6# s_mult1 [6] $end
$var wire 1 7# s_mult1 [5] $end
$var wire 1 8# s_mult1 [4] $end
$var wire 1 9# s_mult1 [3] $end
$var wire 1 :# s_mult1 [2] $end
$var wire 1 ;# s_mult1 [1] $end
$var wire 1 <# s_mult1 [0] $end
$var wire 1 =# s_mult2 [31] $end
$var wire 1 ># s_mult2 [30] $end
$var wire 1 ?# s_mult2 [29] $end
$var wire 1 @# s_mult2 [28] $end
$var wire 1 A# s_mult2 [27] $end
$var wire 1 B# s_mult2 [26] $end
$var wire 1 C# s_mult2 [25] $end
$var wire 1 D# s_mult2 [24] $end
$var wire 1 E# s_mult2 [23] $end
$var wire 1 F# s_mult2 [22] $end
$var wire 1 G# s_mult2 [21] $end
$var wire 1 H# s_mult2 [20] $end
$var wire 1 I# s_mult2 [19] $end
$var wire 1 J# s_mult2 [18] $end
$var wire 1 K# s_mult2 [17] $end
$var wire 1 L# s_mult2 [16] $end
$var wire 1 M# s_mult2 [15] $end
$var wire 1 N# s_mult2 [14] $end
$var wire 1 O# s_mult2 [13] $end
$var wire 1 P# s_mult2 [12] $end
$var wire 1 Q# s_mult2 [11] $end
$var wire 1 R# s_mult2 [10] $end
$var wire 1 S# s_mult2 [9] $end
$var wire 1 T# s_mult2 [8] $end
$var wire 1 U# s_mult2 [7] $end
$var wire 1 V# s_mult2 [6] $end
$var wire 1 W# s_mult2 [5] $end
$var wire 1 X# s_mult2 [4] $end
$var wire 1 Y# s_mult2 [3] $end
$var wire 1 Z# s_mult2 [2] $end
$var wire 1 [# s_mult2 [1] $end
$var wire 1 \# s_mult2 [0] $end
$var wire 1 ]# s_sum [31] $end
$var wire 1 ^# s_sum [30] $end
$var wire 1 _# s_sum [29] $end
$var wire 1 `# s_sum [28] $end
$var wire 1 a# s_sum [27] $end
$var wire 1 b# s_sum [26] $end
$var wire 1 c# s_sum [25] $end
$var wire 1 d# s_sum [24] $end
$var wire 1 e# s_sum [23] $end
$var wire 1 f# s_sum [22] $end
$var wire 1 g# s_sum [21] $end
$var wire 1 h# s_sum [20] $end
$var wire 1 i# s_sum [19] $end
$var wire 1 j# s_sum [18] $end
$var wire 1 k# s_sum [17] $end
$var wire 1 l# s_sum [16] $end
$var wire 1 m# s_sum [15] $end
$var wire 1 n# s_sum [14] $end
$var wire 1 o# s_sum [13] $end
$var wire 1 p# s_sum [12] $end
$var wire 1 q# s_sum [11] $end
$var wire 1 r# s_sum [10] $end
$var wire 1 s# s_sum [9] $end
$var wire 1 t# s_sum [8] $end
$var wire 1 u# s_sum [7] $end
$var wire 1 v# s_sum [6] $end
$var wire 1 w# s_sum [5] $end
$var wire 1 x# s_sum [4] $end
$var wire 1 y# s_sum [3] $end
$var wire 1 z# s_sum [2] $end
$var wire 1 {# s_sum [1] $end
$var wire 1 |# s_sum [0] $end
$var wire 1 }# s_led $end
$var wire 1 ~# s_led_sync $end
$upscope $end
$upscope $end
$enddefinitions $end
#0
$dumpvars
1!
1"
0#
0}#
0~#
0$
0)
0.
0/
0P
0Q
0t
0u
zv
0%
0&
0'
0(
1*
1+
1,
1-
00
01
02
03
04
05
06
07
08
09
0:
0;
0<
0=
0>
0?
0@
0A
0B
0C
0D
0E
0F
0G
0H
0I
0J
0K
0L
0M
0N
0O
0R
0S
0T
0U
0V
0W
0X
0Y
0Z
0[
0\
0]
0^
0_
0`
0a
0b
0c
0d
0e
0f
0g
0h
0i
0j
0k
0l
0m
0n
0o
0p
0q
0r
0s
1y!
1z!
1{!
1|!
1}!
1~!
1!"
1""
1#"
1$"
1%"
1&"
1'"
1("
1)"
1*"
1+"
1,"
1-"
1."
1/"
10"
11"
12"
13"
14"
15"
16"
17"
18"
19"
1:"
1;"
1<"
1="
1>"
1?"
1@"
1A"
1B"
1C"
1D"
1E"
1F"
1G"
1H"
1I"
1J"
1K"
1L"
1M"
1N"
1O"
1P"
1Q"
1R"
1S"
1T"
1U"
1V"
1W"
1X"
1Y"
1Z"
0w
0x
0y
0z
0{
0|
0}
0~
0!!
0"!
0#!
0$!
0%!
0&!
0'!
0(!
0)!
0*!
0+!
0,!
0-!
0.!
0/!
00!
01!
02!
03!
04!
05!
06!
07!
08!
09!
0:!
0;!
0<!
0=!
0>!
0?!
0@!
0A!
0B!
0C!
0D!
0E!
0F!
0G!
0H!
0I!
0J!
0K!
0L!
0M!
0N!
0O!
0P!
0Q!
0R!
0S!
0T!
0U!
0V!
0W!
0X!
0Y!
0Z!
0[!
0\!
0]!
0^!
0_!
0`!
0a!
0b!
0c!
0d!
0e!
0f!
0g!
0h!
0i!
0j!
0k!
0l!
0m!
0n!
0o!
0p!
0q!
0r!
0s!
0t!
0u!
0v!
0w!
0x!
1["
1\"
1]"
1^"
1_"
1`"
1a"
1b"
1c"
1d"
1e"
1f"
1g"
1h"
1i"
1j"
1k"
1l"
1m"
1n"
1o"
1p"
1q"
1r"
1s"
1t"
1u"
1v"
1w"
1x"
1y"
1z"
0{"
0|"
0}"
0~"
0!#
0"#
0##
0$#
0%#
0&#
0'#
0(#
0)#
0*#
0+#
0,#
0-#
0.#
0/#
00#
01#
02#
03#
04#
05#
06#
07#
08#
09#
0:#
0;#
0<#
0=#
0>#
0?#
0@#
0A#
0B#
0C#
0D#
0E#
0F#
0G#
0H#
0I#
0J#
0K#
0L#
0M#
0N#
0O#
0P#
0Q#
0R#
0S#
0T#
0U#
0V#
0W#
0X#
0Y#
0Z#
0[#
0\#
0]#
0^#
0_#
0`#
0a#
0b#
0c#
0d#
0e#
0f#
0g#
0h#
0i#
0j#
0k#
0l#
0m#
0n#
0o#
0p#
0q#
0r#
0s#
0t#
0u#
0v#
0w#
0x#
0y#
0z#
0{#
0|#
$end
#5000
0!
#10000
1!
#15000
0!
#20000
1!
#25000
0!
#30000
1!
#35000
0!
#40000
1!
#45000
0!
#50000
1!
#55000
0!
#60000
1!
#65000
0!
#70000
1!
#75000
0!
#80000
1!
#85000
0!
#90000
1!
#95000
0!
#100000
x"
1!
1x!
1w!
1v!
1u!
1t!
1s!
1r!
1q!
1p!
1o!
1n!
1m!
1l!
1k!
1j!
1i!
1h!
1g!
1f!
1e!
1d!
1c!
1b!
1a!
1`!
1_!
1^!
1]!
1\!
1[!
1Z!
1Y!
1X!
1W!
1V!
1U!
1T!
1S!
1R!
1Q!
1P!
1O!
1N!
1M!
1L!
1K!
1J!
1I!
1H!
1G!
1F!
1E!
1D!
1C!
1B!
1A!
1@!
1?!
1>!
1=!
1<!
1;!
1:!
19!
18!
17!
16!
15!
14!
13!
12!
11!
10!
1/!
1.!
1-!
1,!
1+!
1*!
1)!
1(!
1'!
1&!
1%!
1$!
1#!
1"!
1!!
1~
1}
1|
1{
1z
1y
1x
1w
1}#
1\#
1K#
1J#
1I#
1H#
1G#
1F#
1E#
1D#
1C#
1B#
1A#
1@#
1?#
1>#
1=#
1<#
1+#
1*#
1)#
1(#
1'#
1&#
1%#
1$#
1##
1"#
1!#
1~"
1}"
1|"
1{"
1{#
1j#
1i#
1h#
1g#
1f#
1e#
1d#
1c#
1b#
1a#
1`#
1_#
1^#
1]#
#105000
0!
1P
1.
#110000
1!
0.
0P
1q
1p
1o
1n
1m
1l
1k
1j
1i
1h
1g
1f
1e
1d
1c
1b
1a
1`
1_
1^
1]
1\
1[
1Z
1Y
1X
1W
1V
1U
1T
1S
1R
1u
1~#
1#
#115000
0!
#120000
1!
0q
0p
0o
0n
0m
0l
0k
0j
0i
0h
0g
0f
0e
0d
0c
0b
0a
0`
0_
0^
0]
0\
0[
0Z
0Y
0X
0W
0V
0U
0T
0S
0R
0u
#125000
0!
1(
1P
1.
#130000
1!
0(
0.
0P
1q
1p
1o
1n
1m
1l
1k
1j
1i
1h
1g
1f
1e
1d
1c
1b
1a
1`
1_
1^
1]
1\
1[
1Z
1Y
1X
1W
1V
1U
1T
1S
1R
1u
#135000
0!
#140000
1!
0q
0p
0o
0n
0m
0l
0k
0j
0i
0h
0g
0f
0e
0d
0c
0b
0a
0`
0_
0^
0]
0\
0[
0Z
0Y
0X
0W
0V
0U
0T
0S
0R
0u
#145000
0!
1'
1P
1.
#150000
1!
0'
0.
0P
1q
1p
1o
1n
1m
1l
1k
1j
1i
1h
1g
1f
1e
1d
1c
1b
1a
1`
1_
1^
1]
1\
1[
1Z
1Y
1X
1W
1V
1U
1T
1S
1R
1u
#155000
0!
#160000
1!
0q
0p
0o
0n
0m
0l
0k
0j
0i
0h
0g
0f
0e
0d
0c
0b
0a
0`
0_
0^
0]
0\
0[
0Z
0Y
0X
0W
0V
0U
0T
0S
0R
0u
#165000
0!
1'
1(
1P
1.
#170000
1!
0'
0(
0.
0P
1q
1p
1o
1n
1m
1l
1k
1j
1i
1h
1g
1f
1e
1d
1c
1b
1a
1`
1_
1^
1]
1\
1[
1Z
1Y
1X
1W
1V
1U
1T
1S
1R
1u
#175000
0!
#180000
1!
0q
0p
0o
0n
0m
0l
0k
0j
0i
0h
0g
0f
0e
0d
0c
0b
0a
0`
0_
0^
0]
0\
0[
0Z
0Y
0X
0W
0V
0U
0T
0S
0R
0u
#185000
0!
1&
1P
1.
#190000
1!
0&
0.
0P
1q
1p
1o
1n
1m
1l
1k
1j
1i
1h
1g
1f
1e
1d
1c
1b
1a
1`
1_
1^
1]
1\
1[
1Z
1Y
1X
1W
1V
1U
1T
1S
1R
1u
#195000
0!
#200000
1!
0q
0p
0o
0n
0m
0l
0k
0j
0i
0h
0g
0f
0e
0d
0c
0b
0a
0`
0_
0^
0]
0\
0[
0Z
0Y
0X
0W
0V
0U
0T
0S
0R
0u
#205000
0!
1&
1(
1P
1.
#210000
1!
0&
0(
0.
0P
1s
1r
#215000
0!
#220000
1!
0s
0r
#225000
0!
1&
1'
1P
1.
#230000
1!
0&
0'
0.
0P
1s
1r
#235000
0!
#240000
1!
0s
0r
#245000
0!
1&
1'
1(
1P
1.
#250000
1!
0&
0'
0(
0.
0P
1s
1r
#255000
0!
#260000
1!
0s
0r
#265000
0!
1%
1P
1.
#270000
1!
0%
0.
0P
1s
1r
#275000
0!
#280000
1!
0s
0r
#285000
0!
1%
1(
1P
1.
#290000
1!
0%
0(
0.
0P
1s
1r
#295000
0!
#300000
1!
0s
0r
#305000
0!
1%
1'
1P
1.
#310000
1!
0%
0'
0.
0P
1s
1r
#315000
0!
#320000
1!
0s
0r
#325000
0!
1%
1'
1(
1P
1.
#330000
1!
0%
0'
0(
0.
0P
1s
1r
#335000
0!
#340000
1!
0s
0r
#345000
0!
1%
1&
1P
1.
#350000
1!
0%
0&
0.
0P
1s
1r
#355000
0!
#360000
1!
0s
0r
#365000
0!
1%
1&
1(
1P
1.
#370000
1!
0%
0&
0(
0.
0P
1s
1r
#375000
0!
#380000
1!
0s
0r
#385000
0!
1%
1&
1'
1P
1.
#390000
1!
0%
0&
0'
0.
0P
1s
1r
#395000
0!
#400000
1!
0s
0r
#405000
0!
1%
1&
1'
1(
1P
1.
#410000
1!
0%
0&
0'
0(
0.
0P
1s
1r
#415000
0!
#420000
1!
0s
0r
#425000
0!
11
12
13
14
15
16
17
18
19
1<
1F
1G
1H
1J
1/
1.
#430000
1!
0*"
0)"
0("
0'"
0&"
0$"
0~!
0}!
0|!
0{!
0z!
0y!
#432500
0.
0/
01
02
03
04
05
06
07
08
09
0<
0F
0G
0H
0J
#435000
0!
1P
1.
#440000
1!
0.
0P
1l
1j
1i
1h
1^
1[
1Z
1Y
1X
1W
1V
1U
1T
1S
1u
0(!
0'!
0&!
0%!
0$!
0"!
0|
0{
0z
0y
0x
0w
0<#
17#
16#
12#
11#
10#
1/#
1.#
1-#
1,#
0'#
0&#
0"#
0!#
0~"
0}"
0|"
0{"
1|#
0{#
1w#
1v#
1r#
1q#
1p#
1o#
1n#
1m#
1l#
0g#
0f#
0b#
0a#
0`#
0_#
0^#
0]#
#445000
0!
#450000
1!
0l
0j
0i
0h
0^
0[
0Z
0Y
0X
0W
0V
0U
0T
0S
0u
#455000
0!
#460000
1!
#465000
0!
11
12
13
14
15
16
17
18
19
1<
1F
1G
1H
1J
1/
1.
1(
#470000
1!
0:"
09"
08"
07"
06"
04"
00"
0/"
0."
0-"
0,"
0+"
#472500
0(
0.
0/
01
02
03
04
05
06
07
08
09
0<
0F
0G
0H
0J
#475000
0!
1(
1P
1.
#480000
1!
0(
0.
0P
1l
1j
1i
1h
1^
1[
1Z
1Y
1X
1W
1V
1U
1T
1S
1u
08!
07!
06!
05!
04!
02!
0.!
0-!
0,!
0+!
0*!
0)!
07#
06#
01#
00#
0.#
0-#
0+#
0(#
0%#
0$#
0##
0w#
0v#
0q#
0p#
0n#
0m#
1k#
0j#
0h#
0e#
0d#
0c#
#485000
0!
#490000
1!
0l
0j
0i
0h
0^
0[
0Z
0Y
0X
0W
0V
0U
0T
0S
0u
#495000
0!
11
12
13
14
15
16
17
18
19
1<
1F
1G
1H
1J
1/
1.
1'
#500000
1!
0J"
0I"
0H"
0G"
0F"
0D"
0@"
0?"
0>"
0="
0<"
0;"
#502500
0'
0.
0/
01
02
03
04
05
06
07
08
09
0<
0F
0G
0H
0J
#505000
0!
1'
1P
1.
#510000
1!
0'
0.
0P
1l
1j
1i
1h
1^
1[
1Z
1Y
1X
1W
1V
1U
1T
1S
1u
0H!
0G!
0F!
0E!
0D!
0B!
0>!
0=!
0<!
0;!
0:!
09!
0\#
1W#
1V#
1R#
1Q#
1P#
1O#
1N#
1M#
1L#
0G#
0F#
0B#
0A#
0@#
0?#
0>#
0=#
0|#
1w#
1v#
0r#
0k#
1j#
1g#
1e#
1d#
1c#
#515000
0!
#520000
1!
0l
0j
0i
0h
0^
0[
0Z
0Y
0X
0W
0V
0U
0T
0S
0u
#525000
0!
11
12
13
14
15
16
17
18
19
1<
1F
1G
1H
1J
1/
1.
1'
1(
#530000
1!
0Z"
0Y"
0X"
0W"
0V"
0T"
0P"
0O"
0N"
0M"
0L"
0K"
#532500
0'
0(
0.
0/
01
02
03
04
05
06
07
08
09
0<
0F
0G
0H
0J
#535000
0!
1'
1(
1P
1.
